(module libs:LSM9DS0 (layer F.Cu) (tedit 58C5B171)
  (attr smd)
  (fp_text reference U2 (at -3.302 -1.524 90) (layer F.SilkS)
    (effects (font (size 1 1) (thickness 0.15)))
  )
  (fp_text value LSM9DS0 (at 0 2.925) (layer F.Fab)
    (effects (font (size 1 1) (thickness 0.15)))
  )
  (fp_line (start -1 -2) (end -2 -1) (layer F.Fab) (width 0.15))
  (fp_line (start -2 -1) (end -2 2) (layer F.Fab) (width 0.15))
  (fp_line (start -2 2) (end 2 2) (layer F.Fab) (width 0.15))
  (fp_line (start 2 2) (end 2 -2) (layer F.Fab) (width 0.15))
  (fp_line (start 2 -2) (end -1 -2) (layer F.Fab) (width 0.15))
  (fp_line (start -1.75 -2.15) (end -2.15 -2.15) (layer F.SilkS) (width 0.15))
  (fp_line (start -2.15 -2.15) (end -2.15 -1.75) (layer F.SilkS) (width 0.15))
  (fp_line (start -2.15 -1.75) (end -1.925 -1.75) (layer F.SilkS) (width 0.15))
  (fp_line (start 1.75 -2.15) (end 2.15 -2.15) (layer F.SilkS) (width 0.15))
  (fp_line (start 2.15 -2.15) (end 2.15 -1.75) (layer F.SilkS) (width 0.15))
  (fp_line (start -1.75 2.15) (end -2.15 2.15) (layer F.SilkS) (width 0.15))
  (fp_line (start -2.15 2.15) (end -2.15 1.75) (layer F.SilkS) (width 0.15))
  (fp_line (start 1.75 2.15) (end 2.15 2.15) (layer F.SilkS) (width 0.15))
  (fp_line (start 2.15 2.15) (end 2.15 1.75) (layer F.SilkS) (width 0.15))
  (fp_line (start -2.25 -2.25) (end 2.25 -2.25) (layer F.CrtYd) (width 0.05))
  (fp_line (start 2.25 -2.25) (end 2.25 2.25) (layer F.CrtYd) (width 0.05))
  (fp_line (start 2.25 2.25) (end -2.25 2.25) (layer F.CrtYd) (width 0.05))
  (fp_line (start -2.25 2.25) (end -2.25 -2.25) (layer F.CrtYd) (width 0.05))
  (pad 1 smd rect (at -1.75 -1.25 90) (size 0.2 0.35) (layers F.Cu F.Paste F.Mask)
    (solder_mask_margin 0.1) (clearance 0.08))
  (pad 2 smd rect (at -1.75 -0.75 90) (size 0.2 0.35) (layers F.Cu F.Paste F.Mask)
    (solder_mask_margin 0.1) (clearance 0.08))
  (pad 3 smd rect (at -1.75 -0.25 90) (size 0.2 0.35) (layers F.Cu F.Paste F.Mask)
    (solder_mask_margin 0.1) (clearance 0.08))
  (pad 4 smd rect (at -1.75 0.25 90) (size 0.2 0.35) (layers F.Cu F.Paste F.Mask)
    (solder_mask_margin 0.1) (clearance 0.08))
  (pad 5 smd rect (at -1.75 0.75 90) (size 0.2 0.35) (layers F.Cu F.Paste F.Mask)
    (solder_mask_margin 0.1) (clearance 0.08))
  (pad 6 smd rect (at -1.75 1.25 90) (size 0.2 0.35) (layers F.Cu F.Paste F.Mask)
    (solder_mask_margin 0.1) (clearance 0.08))
  (pad 7 smd rect (at -1.25 1.75) (size 0.2 0.35) (layers F.Cu F.Paste F.Mask)
    (solder_mask_margin 0.1) (clearance 0.08))
  (pad 8 smd rect (at -0.75 1.75) (size 0.2 0.35) (layers F.Cu F.Paste F.Mask)
    (solder_mask_margin 0.1) (clearance 0.08))
  (pad 9 smd rect (at -0.25 1.75) (size 0.2 0.35) (layers F.Cu F.Paste F.Mask)
    (solder_mask_margin 0.1) (clearance 0.08))
  (pad 10 smd rect (at 0.25 1.75) (size 0.2 0.35) (layers F.Cu F.Paste F.Mask)
    (solder_mask_margin 0.1) (clearance 0.08))
  (pad 11 smd rect (at 0.75 1.75) (size 0.2 0.35) (layers F.Cu F.Paste F.Mask)
    (solder_mask_margin 0.1) (clearance 0.08))
  (pad 12 smd rect (at 1.25 1.75) (size 0.2 0.35) (layers F.Cu F.Paste F.Mask)
    (solder_mask_margin 0.1) (clearance 0.08))
  (pad 13 smd rect (at 1.75 1.25 90) (size 0.2 0.35) (layers F.Cu F.Paste F.Mask)
    (solder_mask_margin 0.1) (clearance 0.08))
  (pad 14 smd rect (at 1.75 0.75 90) (size 0.2 0.35) (layers F.Cu F.Paste F.Mask)
    (solder_mask_margin 0.1) (clearance 0.08))
  (pad 15 smd rect (at 1.75 0.25 90) (size 0.2 0.35) (layers F.Cu F.Paste F.Mask)
    (solder_mask_margin 0.1) (clearance 0.08))
  (pad 16 smd rect (at 1.75 -0.25 90) (size 0.2 0.35) (layers F.Cu F.Paste F.Mask)
    (solder_mask_margin 0.1) (clearance 0.08))
  (pad 17 smd rect (at 1.75 -0.75 90) (size 0.2 0.35) (layers F.Cu F.Paste F.Mask)
    (solder_mask_margin 0.1) (clearance 0.08))
  (pad 18 smd rect (at 1.75 -1.25 90) (size 0.2 0.35) (layers F.Cu F.Paste F.Mask)
    (solder_mask_margin 0.1) (clearance 0.08))
  (pad 19 smd rect (at 1.25 -1.75) (size 0.2 0.35) (layers F.Cu F.Paste F.Mask)
    (solder_mask_margin 0.1) (clearance 0.08))
  (pad 20 smd rect (at 0.75 -1.75) (size 0.2 0.35) (layers F.Cu F.Paste F.Mask)
    (solder_mask_margin 0.1) (clearance 0.08))
  (pad 21 smd rect (at 0.25 -1.75) (size 0.2 0.35) (layers F.Cu F.Paste F.Mask)
    (solder_mask_margin 0.1) (clearance 0.08))
  (pad 22 smd rect (at -0.25 -1.75) (size 0.2 0.35) (layers F.Cu F.Paste F.Mask)
    (solder_mask_margin 0.1) (clearance 0.08))
  (pad 23 smd rect (at -0.75 -1.75) (size 0.2 0.35) (layers F.Cu F.Paste F.Mask)
    (solder_mask_margin 0.1) (clearance 0.08))
  (pad 24 smd rect (at -1.25 -1.75) (size 0.2 0.35) (layers F.Cu F.Paste F.Mask)
    (solder_mask_margin 0.1) (clearance 0.08))
)
