(module w_conn_rf:sma_straight_32k101-400l5 (layer F.Cu) (tedit 58C6C687)
  (descr "SMA straight female connector, Rosenberger 32K101-400L5")
  (fp_text reference P3 (at 0 4.8) (layer F.SilkS)
    (effects (font (thickness 0.3048)))
  )
  (fp_text value SMA (at 0 -5.08) (layer F.SilkS)
    (effects (font (thickness 0.2)))
  )
  (fp_circle (center 0 0) (end -0.7 0) (layer F.SilkS) (width 0.381))
  (fp_circle (center 0 0) (end -2.6 0) (layer F.SilkS) (width 0.381))
  (fp_circle (center 0 0) (end -3.1 0) (layer F.SilkS) (width 0.381))
  (fp_line (start -3.2 -3.2) (end -3.2 3.2) (layer F.SilkS) (width 0.381))
  (fp_line (start -3.2 -3.2) (end 3.2 -3.2) (layer F.SilkS) (width 0.381))
  (fp_line (start 3.2 -3.2) (end 3.2 3.2) (layer F.SilkS) (width 0.381))
  (fp_line (start 3.2 3.2) (end -3.2 3.2) (layer F.SilkS) (width 0.381))
  (pad 1 thru_hole circle (at 0 0) (size 2.3 2.3) (drill 1.35) (layers *.Cu *.Mask F.SilkS))
  (pad 2 thru_hole circle (at 2.54 -2.54) (size 2.5 2.5) (drill 1.45) (layers *.Cu *.Mask F.SilkS))
  (pad 2 thru_hole circle (at -2.54 -2.54) (size 2.5 2.5) (drill 1.45) (layers *.Cu *.Mask F.SilkS))
  (pad 2 thru_hole circle (at -2.54 2.54) (size 2.5 2.5) (drill 1.45) (layers *.Cu *.Mask F.SilkS))
  (pad 2 thru_hole circle (at 2.54 2.54) (size 2.5 2.5) (drill 1.45) (layers *.Cu *.Mask F.SilkS))
  (model walter/conn_rf/sma_straight_32k101-400l5.wrl
    (at (xyz 0 0 0))
    (scale (xyz 1 1 1))
    (rotate (xyz 0 0 0))
  )
  (model :LocaLib:kicad_libs/modules/packages3d/walter/conn_rf/sma_straight_32k101-400l5.wrl
    (at (xyz 0 0 0))
    (scale (xyz 1 1 1))
    (rotate (xyz 0 0 0))
  )
)
